\relax 
\providecommand\hyper@newdestlabel[2]{}
\providecommand\HyperFirstAtBeginDocument{\AtBeginDocument}
\HyperFirstAtBeginDocument{\ifx\hyper@anchor\@undefined
\global\let\oldcontentsline\contentsline
\gdef\contentsline#1#2#3#4{\oldcontentsline{#1}{#2}{#3}}
\global\let\oldnewlabel\newlabel
\gdef\newlabel#1#2{\newlabelxx{#1}#2}
\gdef\newlabelxx#1#2#3#4#5#6{\oldnewlabel{#1}{{#2}{#3}}}
\AtEndDocument{\ifx\hyper@anchor\@undefined
\let\contentsline\oldcontentsline
\let\newlabel\oldnewlabel
\fi}
\fi}
\global\let\hyper@last\relax 
\gdef\HyperFirstAtBeginDocument#1{#1}
\providecommand\HyField@AuxAddToFields[1]{}
\providecommand\HyField@AuxAddToCoFields[2]{}
\providecommand\@newglossary[4]{}
\@newglossary{main}{glg}{gls}{glo}
\@newglossary{acronym}{alg}{acr}{acn}
\providecommand\@glsorder[1]{}
\providecommand\@istfilename[1]{}
\@istfilename{Report.ist}
\@glsorder{word}
\@writefile{toc}{\contentsline {section}{\numberline {1}The problem statement}{1}{section.1}\protected@file@percent }
\@writefile{toc}{\contentsline {section}{\numberline {2}Used solutions}{1}{section.2}\protected@file@percent }
\@writefile{toc}{\contentsline {subsection}{\numberline {2.1}Brute Force}{1}{subsection.2.1}\protected@file@percent }
\@writefile{toc}{\contentsline {subsection}{\numberline {2.2}Branch and Bound}{1}{subsection.2.2}\protected@file@percent }
\@writefile{toc}{\contentsline {subsection}{\numberline {2.3}Complexity}{2}{subsection.2.3}\protected@file@percent }
\@writefile{toc}{\contentsline {section}{\numberline {3}Time of execution}{2}{section.3}\protected@file@percent }
\@writefile{toc}{\contentsline {section}{\numberline {4}Testing}{2}{section.4}\protected@file@percent }
\@writefile{toc}{\contentsline {subsection}{\numberline {4.1}Samples}{2}{subsection.4.1}\protected@file@percent }
\@writefile{toc}{\contentsline {subsection}{\numberline {4.2}The graphs}{2}{subsection.4.2}\protected@file@percent }
\@writefile{toc}{\contentsline {subsubsection}{\numberline {4.2.1}NR instances}{2}{subsubsection.4.2.1}\protected@file@percent }
\@writefile{lof}{\contentsline {figure}{\numberline {1}{\ignorespaces Complexity of NR instances}}{3}{figure.1}\protected@file@percent }
\newlabel{fig:complexity_nr}{{1}{3}{Complexity of NR instances}{figure.1}{}}
\@writefile{lof}{\contentsline {figure}{\numberline {2}{\ignorespaces Time of execution of NR instances}}{3}{figure.2}\protected@file@percent }
\newlabel{fig:time_nr}{{2}{3}{Time of execution of NR instances}{figure.2}{}}
\@writefile{lof}{\contentsline {figure}{\numberline {3}{\ignorespaces Complexity frequencies of brute force algorithm with NR10 instances}}{4}{figure.3}\protected@file@percent }
\newlabel{fig:complexity_frequency_nr10_brute_force}{{3}{4}{Complexity frequencies of brute force algorithm with NR10 instances}{figure.3}{}}
\@writefile{lof}{\contentsline {figure}{\numberline {4}{\ignorespaces Complexity frequencies of branch and bound algorithm with NR10 instances}}{4}{figure.4}\protected@file@percent }
\newlabel{fig:complexity_frequency_nr10_branch_bound}{{4}{4}{Complexity frequencies of branch and bound algorithm with NR10 instances}{figure.4}{}}
\@writefile{toc}{\contentsline {subsubsection}{\numberline {4.2.2}ZR instances}{5}{subsubsection.4.2.2}\protected@file@percent }
\@writefile{lof}{\contentsline {figure}{\numberline {5}{\ignorespaces Complexity of ZR instances}}{5}{figure.5}\protected@file@percent }
\newlabel{fig:complexity_zr}{{5}{5}{Complexity of ZR instances}{figure.5}{}}
\@writefile{lof}{\contentsline {figure}{\numberline {6}{\ignorespaces Time of execution of ZR instances}}{5}{figure.6}\protected@file@percent }
\newlabel{fig:time_zr}{{6}{5}{Time of execution of ZR instances}{figure.6}{}}
\@writefile{lof}{\contentsline {figure}{\numberline {7}{\ignorespaces Complexity frequencies of brute force algorithm with ZR10 instances}}{6}{figure.7}\protected@file@percent }
\newlabel{fig:complexity_frequency_nr10_brute_force}{{7}{6}{Complexity frequencies of brute force algorithm with ZR10 instances}{figure.7}{}}
\@writefile{lof}{\contentsline {figure}{\numberline {8}{\ignorespaces Complexity frequencies of branch and bound algorithm with ZR10 instances}}{6}{figure.8}\protected@file@percent }
\newlabel{fig:complexity_frequency_nr10_branch_bound}{{8}{6}{Complexity frequencies of branch and bound algorithm with ZR10 instances}{figure.8}{}}
\@writefile{toc}{\contentsline {section}{\numberline {5}Conclusion}{7}{section.5}\protected@file@percent }
\gdef \@abspage@last{7}
