\relax 
\providecommand\hyper@newdestlabel[2]{}
\providecommand\HyperFirstAtBeginDocument{\AtBeginDocument}
\HyperFirstAtBeginDocument{\ifx\hyper@anchor\@undefined
\global\let\oldnewlabel\newlabel
\gdef\newlabel#1#2{\newlabelxx{#1}#2}
\gdef\newlabelxx#1#2#3#4#5#6{\oldnewlabel{#1}{{#2}{#3}}}
\AtEndDocument{\ifx\hyper@anchor\@undefined
\let\newlabel\oldnewlabel
\fi}
\fi}
\global\let\hyper@last\relax 
\gdef\HyperFirstAtBeginDocument#1{#1}
\providecommand\HyField@AuxAddToFields[1]{}
\providecommand\HyField@AuxAddToCoFields[2]{}
\providecommand*\new@tpo@label[2]{}
\providecommand\@newglossary[4]{}
\@newglossary{main}{glg}{gls}{glo}
\@newglossary{acronym}{alg}{acr}{acn}
\@writefile{toc}{\contentsline {chapter}{\numberline {1}Description of algorithms}{1}{chapter.1}\protected@file@percent }
\@writefile{lof}{\addvspace {10\p@ }}
\@writefile{lot}{\addvspace {10\p@ }}
\@writefile{toc}{\contentsline {section}{\numberline {1.1}Branch and Bound}{1}{section.1.1}\protected@file@percent }
\@writefile{toc}{\contentsline {section}{\numberline {1.2}Cost/Weight heuristics}{1}{section.1.2}\protected@file@percent }
\@writefile{toc}{\contentsline {section}{\numberline {1.3}Dynamic programming}{1}{section.1.3}\protected@file@percent }
\@writefile{loa}{\contentsline {algorithm}{\numberline {1}{\ignorespaces Dynamic programming(decomposition by weight)}}{2}{algorithm.1}\protected@file@percent }
\newlabel{lst:dynamic_programming}{{1}{2}{Dynamic programming}{algorithm.1}{}}
\@writefile{toc}{\contentsline {section}{\numberline {1.4}FPTAS}{2}{section.1.4}\protected@file@percent }
\@writefile{toc}{\contentsline {chapter}{\numberline {2}Comparison of run-times}{3}{chapter.2}\protected@file@percent }
\@writefile{lof}{\addvspace {10\p@ }}
\@writefile{lot}{\addvspace {10\p@ }}
\@writefile{lof}{\contentsline {figure}{\numberline {2.1}{\ignorespaces Comparison of run-times of branch and bound and dynamic programming with decomposition by cost and weight}}{4}{figure.2.1}\protected@file@percent }
\newlabel{fig:time_optimisation}{{2.1}{4}{Comparison of run-times of branch and bound and dynamic programming with decomposition by cost and weight}{figure.2.1}{}}
\@writefile{lof}{\contentsline {figure}{\numberline {2.2}{\ignorespaces Comparison of run-times of cost/weight heuristics and FPTAS with different given errors}}{5}{figure.2.2}\protected@file@percent }
\newlabel{fig:time_fptas}{{2.2}{5}{Comparison of run-times of cost/weight heuristics and FPTAS with different given errors}{figure.2.2}{}}
\@writefile{toc}{\contentsline {chapter}{\numberline {3}Measurement of errors}{7}{chapter.3}\protected@file@percent }
\@writefile{lof}{\addvspace {10\p@ }}
\@writefile{lot}{\addvspace {10\p@ }}
\@writefile{lof}{\contentsline {figure}{\numberline {3.1}{\ignorespaces Comparison of errors and performance guarantees of cost/weight heuristics and FPTAS with different given errors for NK instances}}{7}{figure.3.1}\protected@file@percent }
\newlabel{fig:NK_error}{{3.1}{7}{Comparison of errors and performance guarantees of cost/weight heuristics and FPTAS with different given errors for NK instances}{figure.3.1}{}}
\@writefile{lof}{\contentsline {figure}{\numberline {3.2}{\ignorespaces Comparison of errors and performance guarantees of cost/weight heuristics and FPTAS with different given errors for ZKC instances}}{8}{figure.3.2}\protected@file@percent }
\newlabel{fig:ZKC_error}{{3.2}{8}{Comparison of errors and performance guarantees of cost/weight heuristics and FPTAS with different given errors for ZKC instances}{figure.3.2}{}}
\@writefile{lof}{\contentsline {figure}{\numberline {3.3}{\ignorespaces Comparison of errors and performance guarantees of cost/weight heuristics and FPTAS with different given errors for ZKW instances}}{9}{figure.3.3}\protected@file@percent }
\newlabel{fig:ZKW_error}{{3.3}{9}{Comparison of errors and performance guarantees of cost/weight heuristics and FPTAS with different given errors for ZKW instances}{figure.3.3}{}}
\@writefile{toc}{\contentsline {chapter}{\numberline {4}Discussion}{11}{chapter.4}\protected@file@percent }
\@writefile{lof}{\addvspace {10\p@ }}
\@writefile{lot}{\addvspace {10\p@ }}
\gdef \@abspage@last{11}
