\relax 
\providecommand\hyper@newdestlabel[2]{}
\providecommand\HyperFirstAtBeginDocument{\AtBeginDocument}
\HyperFirstAtBeginDocument{\ifx\hyper@anchor\@undefined
\global\let\oldnewlabel\newlabel
\gdef\newlabel#1#2{\newlabelxx{#1}#2}
\gdef\newlabelxx#1#2#3#4#5#6{\oldnewlabel{#1}{{#2}{#3}}}
\AtEndDocument{\ifx\hyper@anchor\@undefined
\let\newlabel\oldnewlabel
\fi}
\fi}
\global\let\hyper@last\relax 
\gdef\HyperFirstAtBeginDocument#1{#1}
\providecommand\HyField@AuxAddToFields[1]{}
\providecommand\HyField@AuxAddToCoFields[2]{}
\providecommand*\new@tpo@label[2]{}
\providecommand\@newglossary[4]{}
\@newglossary{main}{glg}{gls}{glo}
\@newglossary{acronym}{alg}{acr}{acn}
\@writefile{toc}{\contentsline {chapter}{\numberline {}Lecture 2}{1}{chapter.1}\protected@file@percent }
\@writefile{lof}{\addvspace {10\p@ }}
\@writefile{lot}{\addvspace {10\p@ }}
\@writefile{toc}{\contentsline {section}{\numberline {2.1}Decision problems}{1}{section.1.1}\protected@file@percent }
\@writefile{toc}{\contentsline {section}{\numberline {2.2}Turing machine}{1}{section.1.2}\protected@file@percent }
\@writefile{toc}{\contentsline {section}{\numberline {2.3}Solution of decision problem}{2}{section.1.3}\protected@file@percent }
\@writefile{toc}{\contentsline {section}{\numberline {2.4}P-class}{2}{section.1.4}\protected@file@percent }
\@writefile{toc}{\contentsline {section}{\numberline {2.5}Non-deterministic Turing machine}{2}{section.1.5}\protected@file@percent }
\@writefile{toc}{\contentsline {section}{\numberline {2.6}NP-class}{2}{section.1.6}\protected@file@percent }
\@writefile{toc}{\contentsline {section}{\numberline {2.7}Co-NP problems}{3}{section.1.7}\protected@file@percent }
\@writefile{lof}{\contentsline {figure}{\numberline {2.1}{\ignorespaces Co-NP problems}}{3}{figure.1.1}\protected@file@percent }
\newlabel{fig:co_np}{{2.1}{3}{Co-NP problems}{figure.1.1}{}}
\@writefile{toc}{\contentsline {chapter}{\numberline {}Lecture 3}{5}{chapter.2}\protected@file@percent }
\@writefile{lof}{\addvspace {10\p@ }}
\@writefile{lot}{\addvspace {10\p@ }}
\@writefile{toc}{\contentsline {section}{\numberline {3.1}Reduction}{5}{section.2.1}\protected@file@percent }
\@writefile{toc}{\contentsline {section}{\numberline {3.2}Karp reduction}{5}{section.2.2}\protected@file@percent }
\@writefile{toc}{\contentsline {section}{\numberline {3.3}NP-hard and NP-complete problems}{6}{section.2.3}\protected@file@percent }
\@writefile{lof}{\contentsline {figure}{\numberline {3.1}{\ignorespaces Problems hierarch}}{6}{figure.2.1}\protected@file@percent }
\newlabel{fig:problems_hierarchy}{{3.1}{6}{Problems hierarch}{figure.2.1}{}}
\@writefile{toc}{\contentsline {section}{\numberline {3.4}Cook's theorem}{6}{section.2.4}\protected@file@percent }
\@writefile{toc}{\contentsline {section}{\numberline {3.5}NP-intermediate problems}{7}{section.2.5}\protected@file@percent }
\@writefile{toc}{\contentsline {section}{\numberline {3.6}Turing reduction}{7}{section.2.6}\protected@file@percent }
\@writefile{lof}{\contentsline {figure}{\numberline {3.2}{\ignorespaces Difference between Karp and Turing reductions}}{7}{figure.2.2}\protected@file@percent }
\newlabel{fig:karp_and_turing_reductions}{{3.2}{7}{Difference between Karp and Turing reductions}{figure.2.2}{}}
\@writefile{toc}{\contentsline {section}{\numberline {3.7}Cook reduction}{8}{section.2.7}\protected@file@percent }
\@writefile{toc}{\contentsline {chapter}{\numberline {}Lecture 4}{9}{chapter.3}\protected@file@percent }
\@writefile{lof}{\addvspace {10\p@ }}
\@writefile{lot}{\addvspace {10\p@ }}
\@writefile{toc}{\contentsline {section}{\numberline {4.1}Pseudo-polynomial algorithms}{9}{section.3.1}\protected@file@percent }
\@writefile{toc}{\contentsline {section}{\numberline {4.2}Quality measurement}{9}{section.3.2}\protected@file@percent }
\@writefile{toc}{\contentsline {section}{\numberline {4.3}Approximation algorithms}{10}{section.3.3}\protected@file@percent }
\@writefile{toc}{\contentsline {subsection}{\numberline {4.3.1}APX class}{10}{subsection.3.3.1}\protected@file@percent }
\@writefile{toc}{\contentsline {section}{\numberline {4.4}PTAS}{11}{section.3.4}\protected@file@percent }
\@writefile{toc}{\contentsline {section}{\numberline {4.5}FPTAS}{11}{section.3.5}\protected@file@percent }
\@writefile{toc}{\contentsline {section}{\numberline {4.6}AP-reduction}{11}{section.3.6}\protected@file@percent }
\@writefile{lof}{\contentsline {figure}{\numberline {4.1}{\ignorespaces AP-reduction}}{11}{figure.3.1}\protected@file@percent }
\newlabel{fig:ap_reduction}{{4.1}{11}{AP-reduction}{figure.3.1}{}}
\@writefile{lof}{\contentsline {figure}{\numberline {4.2}{\ignorespaces NPO hierarchy}}{12}{figure.3.2}\protected@file@percent }
\newlabel{fig:npo_hierarchy}{{4.2}{12}{NPO hierarchy}{figure.3.2}{}}
\@writefile{toc}{\contentsline {chapter}{\numberline {}Lecture 5}{13}{chapter.4}\protected@file@percent }
\@writefile{lof}{\addvspace {10\p@ }}
\@writefile{lot}{\addvspace {10\p@ }}
\@writefile{toc}{\contentsline {section}{\numberline {5.1}Basis set}{13}{section.4.1}\protected@file@percent }
\@writefile{toc}{\contentsline {section}{\numberline {5.2}Complexity measures}{13}{section.4.2}\protected@file@percent }
\@writefile{lof}{\contentsline {figure}{\numberline {5.1}{\ignorespaces Full 1-bit adder}}{13}{figure.4.1}\protected@file@percent }
\newlabel{fig:full_adder}{{5.1}{13}{Full 1-bit adder}{figure.4.1}{}}
\@writefile{toc}{\contentsline {section}{\numberline {5.3}Circuit complexity classes}{14}{section.4.3}\protected@file@percent }
\@writefile{toc}{\contentsline {section}{\numberline {5.4}Circuit for 3-SAT, 2 clauses}{15}{section.4.4}\protected@file@percent }
\@writefile{lof}{\contentsline {figure}{\numberline {5.2}{\ignorespaces 3-SAT}}{15}{figure.4.2}\protected@file@percent }
\newlabel{fig:SAT_3}{{5.2}{15}{3-SAT}{figure.4.2}{}}
\@writefile{lof}{\contentsline {figure}{\numberline {5.3}{\ignorespaces 3-SAT literal checking}}{15}{figure.4.3}\protected@file@percent }
\newlabel{fig:SAT_3_literal_checking}{{5.3}{15}{3-SAT literal checking}{figure.4.3}{}}
\@writefile{toc}{\contentsline {section}{\numberline {5.5}Shannon's theory}{16}{section.4.5}\protected@file@percent }
\@writefile{toc}{\contentsline {section}{\numberline {5.6}Kolmogorov complexity}{16}{section.4.6}\protected@file@percent }
\@writefile{toc}{\contentsline {chapter}{\numberline {}Lecture 6}{17}{chapter.5}\protected@file@percent }
\@writefile{lof}{\addvspace {10\p@ }}
\@writefile{lot}{\addvspace {10\p@ }}
\@writefile{toc}{\contentsline {section}{\numberline {6.1}Randomized algorithms}{17}{section.5.1}\protected@file@percent }
\@writefile{toc}{\contentsline {section}{\numberline {6.2}Types of randomized algorithms}{17}{section.5.2}\protected@file@percent }
\@writefile{toc}{\contentsline {section}{\numberline {6.3}Examples of randomized algorithms}{17}{section.5.3}\protected@file@percent }
\@writefile{toc}{\contentsline {subsection}{\numberline {6.3.1}MAX-SAT}{17}{subsection.5.3.1}\protected@file@percent }
\@writefile{toc}{\contentsline {subsection}{\numberline {6.3.2}Miller-Rabin primality test}{18}{subsection.5.3.2}\protected@file@percent }
\@writefile{toc}{\contentsline {subsection}{\numberline {6.3.3}Another randomized algorithm for MAX-SAT}{18}{subsection.5.3.3}\protected@file@percent }
\@writefile{toc}{\contentsline {section}{\numberline {6.4}Randomization -- another point of view}{18}{section.5.4}\protected@file@percent }
\@writefile{toc}{\contentsline {section}{\numberline {6.5}Randomization from the outside}{18}{section.5.5}\protected@file@percent }
\@writefile{toc}{\contentsline {section}{\numberline {6.6}Limits of randomization}{18}{section.5.6}\protected@file@percent }
\@writefile{toc}{\contentsline {section}{\numberline {6.7}Experimental evaluation}{19}{section.5.7}\protected@file@percent }
\@writefile{toc}{\contentsline {subsection}{\numberline {6.7.1}Evaluation type}{20}{subsection.5.7.1}\protected@file@percent }
\@writefile{toc}{\contentsline {subsection}{\numberline {6.7.2}Standard benchmarks}{20}{subsection.5.7.2}\protected@file@percent }
\@writefile{toc}{\contentsline {chapter}{\numberline {}Lecture 7}{21}{chapter.6}\protected@file@percent }
\@writefile{lof}{\addvspace {10\p@ }}
\@writefile{lot}{\addvspace {10\p@ }}
\@writefile{toc}{\contentsline {section}{\numberline {7.1}Search methods}{21}{section.6.1}\protected@file@percent }
\@writefile{toc}{\contentsline {section}{\numberline {7.2}State space}{21}{section.6.2}\protected@file@percent }
\@writefile{toc}{\contentsline {section}{\numberline {7.3}State graph}{21}{section.6.3}\protected@file@percent }
\@writefile{lof}{\contentsline {figure}{\numberline {7.1}{\ignorespaces State graph of the knapsack problem with 3 items to choose from}}{22}{figure.6.1}\protected@file@percent }
\newlabel{fig:knapsack_graph}{{7.1}{22}{State graph of the knapsack problem with 3 items to choose from}{figure.6.1}{}}
\@writefile{toc}{\contentsline {section}{\numberline {7.4}Search space}{22}{section.6.4}\protected@file@percent }
\@writefile{toc}{\contentsline {section}{\numberline {7.5}Exploring the state space}{22}{section.6.5}\protected@file@percent }
\@writefile{toc}{\contentsline {section}{\numberline {7.6}Stategies for complete exploration}{22}{section.6.6}\protected@file@percent }
\@writefile{toc}{\contentsline {section}{\numberline {7.7}k-neighbourhood}{23}{section.6.7}\protected@file@percent }
\@writefile{toc}{\contentsline {section}{\numberline {7.8}Local methods}{23}{section.6.8}\protected@file@percent }
\@writefile{toc}{\contentsline {section}{\numberline {7.9}Simple local search methods}{23}{section.6.9}\protected@file@percent }
\@writefile{lof}{\contentsline {figure}{\numberline {7.2}{\ignorespaces Local search best only}}{24}{figure.6.2}\protected@file@percent }
\newlabel{fig:local_search_best_only}{{7.2}{24}{Local search best only}{figure.6.2}{}}
\@writefile{toc}{\contentsline {section}{\numberline {7.10}Global and local optimum}{24}{section.6.10}\protected@file@percent }
\@writefile{lof}{\contentsline {figure}{\numberline {7.3}{\ignorespaces Convergence of the good algorithm with solutions of the same quality}}{24}{figure.6.3}\protected@file@percent }
\newlabel{fig:local_optimum_good_algorithm}{{7.3}{24}{Convergence of the good algorithm with solutions of the same quality}{figure.6.3}{}}
\@writefile{lof}{\contentsline {figure}{\numberline {7.4}{\ignorespaces Convergence of the bad algorithm with solutions of different qualities}}{25}{figure.6.4}\protected@file@percent }
\newlabel{fig:local_optimum_bad_algorithm}{{7.4}{25}{Convergence of the bad algorithm with solutions of different qualities}{figure.6.4}{}}
\@writefile{toc}{\contentsline {chapter}{\numberline {}Lecture 8}{27}{chapter.7}\protected@file@percent }
\@writefile{lof}{\addvspace {10\p@ }}
\@writefile{lot}{\addvspace {10\p@ }}
\@writefile{toc}{\contentsline {section}{\numberline {8.1}Simulated Annealing}{27}{section.7.1}\protected@file@percent }
\@writefile{lof}{\contentsline {figure}{\numberline {8.1}{\ignorespaces Local optima}}{27}{figure.7.1}\protected@file@percent }
\newlabel{fig:local_optima}{{8.1}{27}{Local optima}{figure.7.1}{}}
\@writefile{toc}{\contentsline {section}{\numberline {8.2}Simulated Annealing algorithm}{27}{section.7.2}\protected@file@percent }
\@writefile{toc}{\contentsline {section}{\numberline {8.3}Simulated Annealing parameters}{28}{section.7.3}\protected@file@percent }
\@writefile{toc}{\contentsline {section}{\numberline {8.4}The  {\color  {blue}\texttt  {accept()}}  function}{29}{section.7.4}\protected@file@percent }
\@writefile{toc}{\contentsline {subsection}{\numberline {8.4.1}Exploration and exploitation}{29}{subsection.7.4.1}\protected@file@percent }
\@writefile{toc}{\contentsline {section}{\numberline {8.5}Initial temperature $t_{0}$}{29}{section.7.5}\protected@file@percent }
\@writefile{toc}{\contentsline {section}{\numberline {8.6}When to terminate:  {\color  {blue}\texttt  {frozen()}}  function}{30}{section.7.6}\protected@file@percent }
\@writefile{toc}{\contentsline {section}{\numberline {8.7}Inner loop:  {\color  {blue}\texttt  {inner\_loop\_end()}}  function}{30}{section.7.7}\protected@file@percent }
\@writefile{toc}{\contentsline {section}{\numberline {8.8}Cooling function:  {\color  {blue}\texttt  {cool()}} }{30}{section.7.8}\protected@file@percent }
\@writefile{toc}{\contentsline {section}{\numberline {8.9}Cooling schedule}{31}{section.7.9}\protected@file@percent }
\@writefile{toc}{\contentsline {section}{\numberline {8.10}Example}{31}{section.7.10}\protected@file@percent }
\@writefile{toc}{\contentsline {section}{\numberline {8.11}Useful enhancements}{31}{section.7.11}\protected@file@percent }
\@writefile{toc}{\contentsline {section}{\numberline {8.12}Infeasable states}{32}{section.7.12}\protected@file@percent }
\@writefile{toc}{\contentsline {subsection}{\numberline {8.12.1}Repair}{32}{subsection.7.12.1}\protected@file@percent }
\@writefile{toc}{\contentsline {subsection}{\numberline {8.12.2}Relaxation}{32}{subsection.7.12.2}\protected@file@percent }
\@writefile{toc}{\contentsline {chapter}{\numberline {}Lecture 9}{33}{chapter.8}\protected@file@percent }
\@writefile{lof}{\addvspace {10\p@ }}
\@writefile{lot}{\addvspace {10\p@ }}
\@writefile{toc}{\contentsline {section}{\numberline {9.1}Simulated Evolution}{33}{section.8.1}\protected@file@percent }
\@writefile{toc}{\contentsline {section}{\numberline {9.2}Overview of genetic algorithms}{33}{section.8.2}\protected@file@percent }
\@writefile{toc}{\contentsline {section}{\numberline {9.3}Terminoligy}{34}{section.8.3}\protected@file@percent }
\@writefile{toc}{\contentsline {section}{\numberline {9.4}Population}{34}{section.8.4}\protected@file@percent }
\@writefile{toc}{\contentsline {section}{\numberline {9.5}Basic Genetic Algorithm (GA)}{34}{section.8.5}\protected@file@percent }
\@writefile{toc}{\contentsline {subsection}{\numberline {9.5.1}Initial population}{35}{subsection.8.5.1}\protected@file@percent }
\@writefile{toc}{\contentsline {subsection}{\numberline {9.5.2}The fitness}{35}{subsection.8.5.2}\protected@file@percent }
\@writefile{toc}{\contentsline {subsection}{\numberline {9.5.3}Crossover}{35}{subsection.8.5.3}\protected@file@percent }
\@writefile{toc}{\contentsline {subsubsection}{Binary crossovers}{35}{section*.1}\protected@file@percent }
\@writefile{lof}{\contentsline {figure}{\numberline {9.1}{\ignorespaces Crossover points in the genetic algorithm}}{35}{figure.8.1}\protected@file@percent }
\newlabel{fig:crossover_point}{{9.1}{35}{Crossover points in the genetic algorithm}{figure.8.1}{}}
\@writefile{toc}{\contentsline {subsubsection}{Permutation crossovers}{36}{section*.2}\protected@file@percent }
\@writefile{toc}{\contentsline {subsubsection}{Ordered Crossover (OX)}{36}{section*.3}\protected@file@percent }
\@writefile{lof}{\contentsline {figure}{\numberline {9.2}{\ignorespaces Ordered crossover for the permuted encodings}}{36}{figure.8.2}\protected@file@percent }
\newlabel{fig:ordered_crossover}{{9.2}{36}{Ordered crossover for the permuted encodings}{figure.8.2}{}}
\@writefile{toc}{\contentsline {subsubsection}{Partially Matched Crossover (PMX)}{36}{section*.4}\protected@file@percent }
\@writefile{lof}{\contentsline {figure}{\numberline {9.3}{\ignorespaces Partially matched crossover}}{37}{figure.8.3}\protected@file@percent }
\newlabel{fig:partially_matched_crossover}{{9.3}{37}{Partially matched crossover}{figure.8.3}{}}
\@writefile{toc}{\contentsline {subsubsection}{Cycle Crossover (CX)}{37}{section*.5}\protected@file@percent }
\@writefile{lof}{\contentsline {figure}{\numberline {9.4}{\ignorespaces Cycle crossover}}{37}{figure.8.4}\protected@file@percent }
\newlabel{fig:cycle_crossover}{{9.4}{37}{Cycle crossover}{figure.8.4}{}}
\@writefile{toc}{\contentsline {subsection}{\numberline {9.5.4}Mutation}{37}{subsection.8.5.4}\protected@file@percent }
\@writefile{lof}{\contentsline {figure}{\numberline {9.5}{\ignorespaces Mutation}}{38}{figure.8.5}\protected@file@percent }
\newlabel{fig:mutation}{{9.5}{38}{Mutation}{figure.8.5}{}}
\@writefile{toc}{\contentsline {subsection}{\numberline {9.5.5}Selection Strategies}{38}{subsection.8.5.5}\protected@file@percent }
\@writefile{toc}{\contentsline {subsubsection}{Roulette wheel strategy}{38}{section*.6}\protected@file@percent }
\@writefile{lof}{\contentsline {figure}{\numberline {9.6}{\ignorespaces Roulette Wheel Strategy}}{39}{figure.8.6}\protected@file@percent }
\newlabel{fig:roulette_wheel_strategy}{{9.6}{39}{Roulette Wheel Strategy}{figure.8.6}{}}
\@writefile{lof}{\contentsline {figure}{\numberline {9.7}{\ignorespaces Roulette wheel linear scaling}}{39}{figure.8.7}\protected@file@percent }
\newlabel{fig:roulette_wheel_linear_scaling}{{9.7}{39}{Roulette wheel linear scaling}{figure.8.7}{}}
\@writefile{lof}{\contentsline {figure}{\numberline {9.8}{\ignorespaces Roulette wheel ranking}}{40}{figure.8.8}\protected@file@percent }
\newlabel{fig:roulette_wheel_ranking}{{9.8}{40}{Roulette wheel ranking}{figure.8.8}{}}
\@writefile{toc}{\contentsline {subsubsection}{Tournament selection}{40}{section*.7}\protected@file@percent }
\@writefile{toc}{\contentsline {subsubsection}{Truncation selection}{40}{section*.8}\protected@file@percent }
\@writefile{toc}{\contentsline {subsection}{\numberline {9.5.6}Replacing the old population}{40}{subsection.8.5.6}\protected@file@percent }
\@writefile{toc}{\contentsline {subsection}{\numberline {9.5.7}Convergence of the genetic algorithm}{40}{subsection.8.5.7}\protected@file@percent }
\@writefile{toc}{\contentsline {chapter}{\numberline {}Lecture 10}{43}{chapter.9}\protected@file@percent }
\@writefile{lof}{\addvspace {10\p@ }}
\@writefile{lot}{\addvspace {10\p@ }}
\@writefile{toc}{\contentsline {section}{\numberline {10.1}Schemata}{43}{section.9.1}\protected@file@percent }
\@writefile{toc}{\contentsline {section}{\numberline {10.2}Schema theory}{43}{section.9.2}\protected@file@percent }
\@writefile{toc}{\contentsline {section}{\numberline {10.3}Building block hypothesis}{44}{section.9.3}\protected@file@percent }
\@writefile{toc}{\contentsline {section}{\numberline {10.4}Linkage problem}{44}{section.9.4}\protected@file@percent }
\@writefile{toc}{\contentsline {section}{\numberline {10.5}Fast Messy Genetic Algorithm (FMGA)}{44}{section.9.5}\protected@file@percent }
\@writefile{lof}{\contentsline {figure}{\numberline {10.1}{\ignorespaces FMGA encoding example}}{44}{figure.9.1}\protected@file@percent }
\newlabel{fig:fmga_encoding}{{10.1}{44}{FMGA encoding example}{figure.9.1}{}}
\@writefile{toc}{\contentsline {subsection}{\numberline {10.5.1}FMGA algorithm}{44}{subsection.9.5.1}\protected@file@percent }
\@writefile{lof}{\contentsline {figure}{\numberline {10.2}{\ignorespaces FMGA evolution cycle}}{45}{figure.9.2}\protected@file@percent }
\newlabel{fig:fmga_evolution_cycle}{{10.2}{45}{FMGA evolution cycle}{figure.9.2}{}}
\@writefile{toc}{\contentsline {subsubsection}{Initial building blocks}{45}{section*.9}\protected@file@percent }
\@writefile{toc}{\contentsline {subsubsection}{Building blocks filtration}{45}{section*.10}\protected@file@percent }
\@writefile{toc}{\contentsline {subsubsection}{Crossover}{45}{section*.11}\protected@file@percent }
\@writefile{toc}{\contentsline {section}{\numberline {10.6}Bayesian Optimization Algorithm (BOA)}{45}{section.9.6}\protected@file@percent }
\@writefile{toc}{\contentsline {section}{\numberline {10.7}Genetic programming}{46}{section.9.7}\protected@file@percent }
\@writefile{toc}{\contentsline {subsection}{\numberline {10.7.1}Program representation}{46}{subsection.9.7.1}\protected@file@percent }
\@writefile{toc}{\contentsline {subsection}{\numberline {10.7.2}GP parameters}{46}{subsection.9.7.2}\protected@file@percent }
\@writefile{toc}{\contentsline {subsection}{\numberline {10.7.3}GP operations}{46}{subsection.9.7.3}\protected@file@percent }
\@writefile{toc}{\contentsline {section}{\numberline {10.8}Cartesian Genetic Programming}{47}{section.9.8}\protected@file@percent }
\@writefile{lof}{\contentsline {figure}{\numberline {10.3}{\ignorespaces Cartesian genetic programming gates}}{47}{figure.9.3}\protected@file@percent }
\newlabel{fig:cartesian_genetic_programming_gates}{{10.3}{47}{Cartesian genetic programming gates}{figure.9.3}{}}
\@writefile{toc}{\contentsline {section}{\numberline {10.9}Parallel Genetic Algorithm}{47}{section.9.9}\protected@file@percent }
\@writefile{toc}{\contentsline {subsection}{\numberline {10.9.1}Island models}{47}{subsection.9.9.1}\protected@file@percent }
\@writefile{toc}{\contentsline {subsection}{\numberline {10.9.2}Cellular Genetic Algorithm}{47}{subsection.9.9.2}\protected@file@percent }
\@writefile{toc}{\contentsline {chapter}{\numberline {}Lecture 11}{49}{chapter.10}\protected@file@percent }
\@writefile{lof}{\addvspace {10\p@ }}
\@writefile{lot}{\addvspace {10\p@ }}
\@writefile{toc}{\contentsline {section}{\numberline {11.1}Tabu list}{49}{section.10.1}\protected@file@percent }
\@writefile{lof}{\contentsline {figure}{\numberline {11.1}{\ignorespaces Tabu example}}{50}{figure.10.1}\protected@file@percent }
\newlabel{fig:basic_tabu}{{11.1}{50}{Tabu example}{figure.10.1}{}}
\@writefile{toc}{\contentsline {section}{\numberline {11.2}Attributes}{50}{section.10.2}\protected@file@percent }
\@writefile{toc}{\contentsline {section}{\numberline {11.3}Short-term memory}{50}{section.10.3}\protected@file@percent }
\@writefile{toc}{\contentsline {section}{\numberline {11.4}Aspiration criteria}{50}{section.10.4}\protected@file@percent }
\@writefile{toc}{\contentsline {subsection}{\numberline {11.4.1}MAX-SAT example}{51}{subsection.10.4.1}\protected@file@percent }
\@writefile{toc}{\contentsline {section}{\numberline {11.5}Tabu + Aspiration criteria}{51}{section.10.5}\protected@file@percent }
\@writefile{lof}{\contentsline {figure}{\numberline {11.2}{\ignorespaces Tabu + Aspiration criteria}}{51}{figure.10.2}\protected@file@percent }
\newlabel{fig:tabu_and_aspiration_criteria}{{11.2}{51}{Tabu + Aspiration criteria}{figure.10.2}{}}
\@writefile{toc}{\contentsline {section}{\numberline {11.6}Tabu search algorithm}{51}{section.10.6}\protected@file@percent }
\@writefile{lof}{\contentsline {figure}{\numberline {11.3}{\ignorespaces Tabu search algorithm}}{52}{figure.10.3}\protected@file@percent }
\newlabel{fig:tabu_search_algorithm}{{11.3}{52}{Tabu search algorithm}{figure.10.3}{}}
\@writefile{toc}{\contentsline {section}{\numberline {11.7}Strategic oscilation}{52}{section.10.7}\protected@file@percent }
\@writefile{toc}{\contentsline {section}{\numberline {11.8}Path relinking}{52}{section.10.8}\protected@file@percent }
\@writefile{toc}{\contentsline {section}{\numberline {11.9}Stopping condition}{52}{section.10.9}\protected@file@percent }
\@writefile{toc}{\contentsline {chapter}{\numberline {}Lecture 12}{53}{chapter.11}\protected@file@percent }
\@writefile{lof}{\addvspace {10\p@ }}
\@writefile{lot}{\addvspace {10\p@ }}
\@writefile{toc}{\contentsline {section}{\numberline {12.1}Decomposition}{53}{section.11.1}\protected@file@percent }
\gdef \@abspage@last{53}
