\relax 
\providecommand\hyper@newdestlabel[2]{}
\providecommand\HyperFirstAtBeginDocument{\AtBeginDocument}
\HyperFirstAtBeginDocument{\ifx\hyper@anchor\@undefined
\global\let\oldcontentsline\contentsline
\gdef\contentsline#1#2#3#4{\oldcontentsline{#1}{#2}{#3}}
\global\let\oldnewlabel\newlabel
\gdef\newlabel#1#2{\newlabelxx{#1}#2}
\gdef\newlabelxx#1#2#3#4#5#6{\oldnewlabel{#1}{{#2}{#3}}}
\AtEndDocument{\ifx\hyper@anchor\@undefined
\let\contentsline\oldcontentsline
\let\newlabel\oldnewlabel
\fi}
\fi}
\global\let\hyper@last\relax 
\gdef\HyperFirstAtBeginDocument#1{#1}
\providecommand\HyField@AuxAddToFields[1]{}
\providecommand\HyField@AuxAddToCoFields[2]{}
\providecommand*\new@tpo@label[2]{}
\providecommand\@newglossary[4]{}
\@newglossary{main}{glg}{gls}{glo}
\@newglossary{acronym}{alg}{acr}{acn}
\@writefile{toc}{\contentsline {chapter}{\numberline {}Test Questions and answers}{1}{chapter.1}\protected@file@percent }
\@writefile{lof}{\addvspace {10\p@ }}
\@writefile{lot}{\addvspace {10\p@ }}
\@writefile{toc}{\contentsline {section}{\numberline {}1}{1}{section.1.1}\protected@file@percent }
\@writefile{toc}{\contentsline {section}{\numberline {}2}{1}{section.1.2}\protected@file@percent }
\@writefile{toc}{\contentsline {section}{\numberline {}3}{1}{section.1.3}\protected@file@percent }
\@writefile{toc}{\contentsline {section}{\numberline {}4}{1}{section.1.4}\protected@file@percent }
\@writefile{toc}{\contentsline {section}{\numberline {}5}{2}{section.1.5}\protected@file@percent }
\@writefile{toc}{\contentsline {section}{\numberline {}6}{2}{section.1.6}\protected@file@percent }
\@writefile{toc}{\contentsline {section}{\numberline {}7}{2}{section.1.7}\protected@file@percent }
\@writefile{toc}{\contentsline {section}{\numberline {}8}{2}{section.1.8}\protected@file@percent }
\@writefile{toc}{\contentsline {section}{\numberline {}9}{2}{section.1.9}\protected@file@percent }
\@writefile{toc}{\contentsline {section}{\numberline {}10}{2}{section.1.10}\protected@file@percent }
\@writefile{toc}{\contentsline {section}{\numberline {}11}{3}{section.1.11}\protected@file@percent }
\@writefile{toc}{\contentsline {section}{\numberline {}12}{3}{section.1.12}\protected@file@percent }
\gdef \@abspage@last{3}
